<svg width="18" height="18" viewBox="0 0 18 18" fill="none" xmlns="http://www.w3.org/2000/svg">
<path fill-rule="evenodd" clip-rule="evenodd" d="M8.92105 10.0354C5.94426 10.0354 0 11.5297 0 14.4958V17.8412H17.8421V14.4958C17.8421 11.5297 11.8988 10.0354 8.92105 10.0354ZM8.92105 0C6.45706 0 4.46053 1.99569 4.46053 4.46017C4.46053 6.92439 6.45706 8.92046 8.92105 8.92046C11.3859 8.92046 13.3816 6.92439 13.3816 4.46017C13.3816 1.99569 11.3859 0 8.92105 0ZM8.92105 12.154C12.2336 12.154 15.724 13.7822 15.724 14.4958V15.7227H2.11898V14.4958C2.11898 13.7822 5.60952 12.154 8.92105 12.154ZM8.92105 2.1185C10.2147 2.1185 11.2636 3.16672 11.2636 4.46017C11.2636 5.7535 10.2147 6.80196 8.92105 6.80196C7.62741 6.80196 6.57951 5.7535 6.57951 4.46017C6.57951 3.16672 7.62741 2.1185 8.92105 2.1185Z" fill="#1875F0"/>
</svg>
