<svg width="27" height="15" viewBox="0 0 27 15" fill="none" xmlns="http://www.w3.org/2000/svg">
<path d="M2.41667 0.25C1.07542 0.25 0 1.32542 0 2.66667V11.125H2.41667C2.41667 12.0864 2.79858 13.0084 3.4784 13.6883C4.15822 14.3681 5.08026 14.75 6.04167 14.75C7.00308 14.75 7.92511 14.3681 8.60493 13.6883C9.28475 13.0084 9.66667 12.0864 9.66667 11.125H16.9167C16.9167 12.0864 17.2986 13.0084 17.9784 13.6883C18.6582 14.3681 19.5803 14.75 20.5417 14.75C21.5031 14.75 22.4251 14.3681 23.1049 13.6883C23.7847 13.0084 24.1667 12.0864 24.1667 11.125H26.5833V7.5C26.5833 6.15875 25.5079 5.08333 24.1667 5.08333H21.75V2.66667C21.75 1.32542 20.6746 0.25 19.3333 0.25H2.41667ZM15.1042 2.0625H19.9375V5.08333H15.1042V2.0625ZM1.8125 2.0625H6.64583V5.08333H1.8125V2.0625ZM8.45833 2.0625H13.2917V5.08333H8.45833V2.0625ZM6.04167 9.3125C6.52237 9.3125 6.98339 9.50346 7.3233 9.84337C7.66321 10.1833 7.85417 10.6443 7.85417 11.125C7.85417 11.6057 7.66321 12.0667 7.3233 12.4066C6.98339 12.7465 6.52237 12.9375 6.04167 12.9375C5.56096 12.9375 5.09994 12.7465 4.76003 12.4066C4.42013 12.0667 4.22917 11.6057 4.22917 11.125C4.22917 10.6443 4.42013 10.1833 4.76003 9.84337C5.09994 9.50346 5.56096 9.3125 6.04167 9.3125ZM20.5417 9.3125C21.0224 9.3125 21.4834 9.50346 21.8233 9.84337C22.1632 10.1833 22.3542 10.6443 22.3542 11.125C22.3542 11.6057 22.1632 12.0667 21.8233 12.4066C21.4834 12.7465 21.0224 12.9375 20.5417 12.9375C20.061 12.9375 19.5999 12.7465 19.26 12.4066C18.9201 12.0667 18.7292 11.6057 18.7292 11.125C18.7292 10.6443 18.9201 10.1833 19.26 9.84337C19.5999 9.50346 20.061 9.3125 20.5417 9.3125Z" fill="#1875F0"/>
</svg>
