<svg width="15" height="15" viewBox="0 0 15 15" fill="none" xmlns="http://www.w3.org/2000/svg">
<path d="M9.51887 7.50071L14.5643 2.45389C14.7006 2.32223 14.8093 2.16474 14.8841 1.9906C14.9589 1.81647 14.9983 1.62918 14.9999 1.43967C15.0016 1.25016 14.9655 1.06222 14.8937 0.886811C14.822 0.711405 14.716 0.552048 14.582 0.418037C14.448 0.284027 14.2886 0.178048 14.1132 0.106284C13.9378 0.0345191 13.7498 -0.00159292 13.5603 5.38895e-05C13.3708 0.0017007 13.1835 0.0410738 13.0094 0.115876C12.8353 0.190677 12.6778 0.299409 12.5461 0.435728L7.49929 5.48113L2.45389 0.435728C2.32223 0.299409 2.16474 0.190677 1.9906 0.115876C1.81647 0.0410738 1.62918 0.0017007 1.43967 5.38895e-05C1.25016 -0.00159292 1.06222 0.0345191 0.886811 0.106284C0.711405 0.178048 0.552048 0.284027 0.418037 0.418037C0.284027 0.552048 0.178048 0.711405 0.106284 0.886811C0.0345191 1.06222 -0.00159292 1.25016 5.38895e-05 1.43967C0.0017007 1.62918 0.0410738 1.81647 0.115876 1.9906C0.190677 2.16474 0.299409 2.32223 0.435728 2.45389L5.48113 7.49929L0.435728 12.5461C0.299409 12.6778 0.190677 12.8353 0.115876 13.0094C0.0410738 13.1835 0.0017007 13.3708 5.38895e-05 13.5603C-0.00159292 13.7498 0.0345191 13.9378 0.106284 14.1132C0.178048 14.2886 0.284027 14.448 0.418037 14.582C0.552048 14.716 0.711405 14.822 0.886811 14.8937C1.06222 14.9655 1.25016 15.0016 1.43967 14.9999C1.62918 14.9983 1.81647 14.9589 1.9906 14.8841C2.16474 14.8093 2.32223 14.7006 2.45389 14.5643L7.49929 9.51887L12.5461 14.5643C12.6778 14.7006 12.8353 14.8093 13.0094 14.8841C13.1835 14.9589 13.3708 14.9983 13.5603 14.9999C13.7498 15.0016 13.9378 14.9655 14.1132 14.8937C14.2886 14.822 14.448 14.716 14.582 14.582C14.716 14.448 14.822 14.2886 14.8937 14.1132C14.9655 13.9378 15.0016 13.7498 14.9999 13.5603C14.9983 13.3708 14.9589 13.1835 14.8841 13.0094C14.8093 12.8353 14.7006 12.6778 14.5643 12.5461L9.51887 7.49929V7.50071Z" fill="#999999"/>
</svg>
