<svg width="14" height="15" viewBox="0 0 14 15" fill="none" xmlns="http://www.w3.org/2000/svg">
<path d="M1.04821 8.47457C1.13757 8.37241 1.24675 8.28857 1.36916 8.22736L1.45861 8.40624L1.36916 8.22736C1.49162 8.16612 1.62519 8.12859 1.76223 8.11661C1.89927 8.10463 2.03755 8.11838 2.16926 8.15721L2.11271 8.34905L2.16926 8.15721C2.30098 8.19604 2.42394 8.2593 2.53092 8.34384L5.94326 11.038V1.81265C5.94326 1.54055 6.05734 1.28189 6.25664 1.0929C6.45557 0.904248 6.72322 0.8 7.00022 0.8C7.27722 0.8 7.54487 0.904248 7.7438 1.0929C7.94309 1.28189 8.05718 1.54055 8.05718 1.81265V11.038L11.4696 8.34379L11.4697 8.34368C11.5767 8.25933 11.6997 8.19622 11.8313 8.15749C11.963 8.11876 12.1012 8.10506 12.2382 8.11703C12.3751 8.12901 12.5086 8.16647 12.6311 8.2276C12.7535 8.28874 12.8628 8.37249 12.9522 8.47458C13.0417 8.57668 13.1097 8.69511 13.1516 8.82328C13.1935 8.95148 13.2085 9.08652 13.1954 9.22056C13.1824 9.35458 13.1417 9.48442 13.076 9.60266L12.9012 9.50558L13.076 9.60266C13.0105 9.7208 12.9214 9.82481 12.8144 9.90916C12.8144 9.90921 12.8143 9.90926 12.8142 9.90931L7.67268 13.9724L7.66077 13.9818L7.64758 13.9893L7.51904 14.0625L7.51914 14.0626L7.51108 14.0668L7.39968 14.1236L7.38886 14.1292L7.37745 14.1333C7.13454 14.2222 6.8659 14.2222 6.62299 14.1333L6.61158 14.1292L6.60076 14.1236L6.48936 14.0668L6.48926 14.0669L6.4814 14.0625L6.35286 13.9893L6.33967 13.9818L6.32776 13.9724L1.1864 9.90947C1.18635 9.90942 1.18629 9.90938 1.18623 9.90934C1.07909 9.82507 0.989854 9.72106 0.924141 9.60288L1.09772 9.50636L0.92414 9.60288C0.858375 9.48461 0.817596 9.3547 0.804558 9.22059C0.791519 9.08648 0.806536 8.95135 0.848577 8.8231C0.890584 8.69496 0.958608 8.57659 1.04821 8.47457ZM1.04821 8.47457C1.04815 8.47464 1.04809 8.4747 1.04804 8.47477L1.19861 8.6064L1.04837 8.47439C1.04832 8.47445 1.04826 8.47451 1.04821 8.47457Z" fill="#1875F0" stroke="#1875F0" stroke-width="0.4"/>
</svg>
