<svg width="11" height="12" viewBox="0 0 11 12" fill="none" xmlns="http://www.w3.org/2000/svg">
<g opacity="0.5">
<mask id="path-1-outside-1" maskUnits="userSpaceOnUse" x="0" y="0" width="11" height="6" fill="black">
<rect fill="white" width="11" height="6"/>
<path fill-rule="evenodd" clip-rule="evenodd" d="M4.8726 1.25855C4.83809 1.20234 4.791 1.15253 4.73403 1.11197C4.67718 1.07129 4.61154 1.04064 4.54087 1.02178C4.47021 1.00291 4.39591 0.996206 4.32222 1.00204C4.24853 1.00787 4.17691 1.02613 4.11145 1.05578C4.04599 1.08542 3.98799 1.12585 3.94076 1.17477L1.12774 4.0735L1.0771 4.14597L1.03772 4.20878C0.987426 4.3207 0.987426 4.4447 1.03772 4.55662L1.0771 4.61943L1.12774 4.6919L1.29805 4.8674H2.76645L2.76491 4.86582L9.43739 4.86582C9.58661 4.86582 9.72971 4.81492 9.83521 4.72432C9.94072 4.63372 10 4.51083 10 4.3827C10 4.25457 9.94072 4.13169 9.83521 4.04108C9.72971 3.95048 9.58661 3.89958 9.43739 3.89958L2.76491 3.89958L4.80717 1.79317C4.85454 1.74435 4.89023 1.68799 4.9122 1.62731C4.93416 1.56662 4.94197 1.50282 4.93518 1.43954C4.92838 1.37626 4.90712 1.31476 4.8726 1.25855Z"/>
</mask>
<path fill-rule="evenodd" clip-rule="evenodd" d="M4.8726 1.25855C4.83809 1.20234 4.791 1.15253 4.73403 1.11197C4.67718 1.07129 4.61154 1.04064 4.54087 1.02178C4.47021 1.00291 4.39591 0.996206 4.32222 1.00204C4.24853 1.00787 4.17691 1.02613 4.11145 1.05578C4.04599 1.08542 3.98799 1.12585 3.94076 1.17477L1.12774 4.0735L1.0771 4.14597L1.03772 4.20878C0.987426 4.3207 0.987426 4.4447 1.03772 4.55662L1.0771 4.61943L1.12774 4.6919L1.29805 4.8674H2.76645L2.76491 4.86582L9.43739 4.86582C9.58661 4.86582 9.72971 4.81492 9.83521 4.72432C9.94072 4.63372 10 4.51083 10 4.3827C10 4.25457 9.94072 4.13169 9.83521 4.04108C9.72971 3.95048 9.58661 3.89958 9.43739 3.89958L2.76491 3.89958L4.80717 1.79317C4.85454 1.74435 4.89023 1.68799 4.9122 1.62731C4.93416 1.56662 4.94197 1.50282 4.93518 1.43954C4.92838 1.37626 4.90712 1.31476 4.8726 1.25855Z" fill="#76767A"/>
<path d="M4.73403 1.11197L4.50126 1.43727L4.50204 1.43782L4.73403 1.11197ZM4.54087 1.02178L4.43771 1.40824L4.43771 1.40824L4.54087 1.02178ZM4.32222 1.00204L4.29065 0.603288H4.29065L4.32222 1.00204ZM4.11145 1.05578L4.27645 1.42016V1.42016L4.11145 1.05578ZM3.94076 1.17477L4.22781 1.45334L4.22853 1.4526L3.94076 1.17477ZM1.12774 4.0735L0.840683 3.79494L0.818275 3.81803L0.799846 3.8444L1.12774 4.0735ZM1.0771 4.14597L0.749212 3.91687L0.743507 3.92503L0.738216 3.93347L1.0771 4.14597ZM1.03772 4.20878L0.698834 3.99628L0.684175 4.01966L0.672865 4.04483L1.03772 4.20878ZM1.03772 4.55662L0.672865 4.72057L0.684175 4.74574L0.698834 4.76912L1.03772 4.55662ZM1.0771 4.61943L0.738216 4.83193L0.743507 4.84037L0.749212 4.84853L1.0771 4.61943ZM1.12774 4.6919L0.799847 4.921L0.818275 4.94737L0.840683 4.97047L1.12774 4.6919ZM1.29805 4.8674L1.011 5.14597L1.12884 5.2674H1.29805V4.8674ZM2.76645 4.8674V5.2674H3.71137L3.05363 4.58897L2.76645 4.8674ZM2.76491 4.86582L2.76491 4.46582H1.81999L2.47773 5.14425L2.76491 4.86582ZM9.43739 4.86582V5.26582V4.86582ZM9.83521 4.72432L9.57462 4.42085L9.57462 4.42085L9.83521 4.72432ZM9.83521 4.04108L9.57462 4.34455L9.57462 4.34455L9.83521 4.04108ZM9.43739 3.89958V4.29958V3.89958ZM2.76491 3.89958L2.47773 3.62114L1.81996 4.29958H2.76491V3.89958ZM4.80717 1.79317L4.5201 1.51461L4.51998 1.51473L4.80717 1.79317ZM4.9122 1.62731L4.53608 1.49115L4.53608 1.49115L4.9122 1.62731ZM4.93518 1.43954L4.53746 1.48224V1.48224L4.93518 1.43954ZM4.50204 1.43782C4.51793 1.44914 4.52699 1.46013 4.53174 1.46786L5.21347 1.04923C5.14918 0.944545 5.06406 0.855913 4.96602 0.786113L4.50204 1.43782ZM4.43771 1.40824C4.46402 1.41527 4.48537 1.4259 4.50126 1.43727L4.9668 0.786671C4.86899 0.716681 4.75906 0.666011 4.64404 0.635308L4.43771 1.40824ZM4.35379 1.40079C4.38268 1.3985 4.41141 1.40122 4.43771 1.40824L4.64404 0.635309C4.52901 0.604603 4.40913 0.593908 4.29065 0.603288L4.35379 1.40079ZM4.27645 1.42016C4.29854 1.41015 4.32488 1.40308 4.35379 1.40079L4.29065 0.603288C4.17217 0.612668 4.05527 0.642115 3.94645 0.691392L4.27645 1.42016ZM4.22853 1.4526C4.23871 1.44206 4.25437 1.43016 4.27645 1.42016L3.94645 0.691392C3.83761 0.740676 3.73727 0.80965 3.65299 0.896946L4.22853 1.4526ZM1.41479 4.35207L4.22781 1.45334L3.6537 0.896207L0.840683 3.79494L1.41479 4.35207ZM1.40499 4.37507L1.45563 4.3026L0.799846 3.8444L0.749212 3.91687L1.40499 4.37507ZM1.37661 4.42127L1.41599 4.35847L0.738216 3.93347L0.698834 3.99628L1.37661 4.42127ZM1.40258 4.39267C1.40025 4.3875 1.4 4.38433 1.4 4.3827C1.4 4.38107 1.40025 4.3779 1.40258 4.37273L0.672865 4.04483C0.575712 4.26103 0.575712 4.50437 0.672865 4.72057L1.40258 4.39267ZM1.41599 4.40693L1.37661 4.34413L0.698834 4.76912L0.738216 4.83193L1.41599 4.40693ZM1.45563 4.4628L1.40499 4.39033L0.749212 4.84853L0.799847 4.921L1.45563 4.4628ZM1.58511 4.58883L1.41479 4.41333L0.840683 4.97047L1.011 5.14597L1.58511 4.58883ZM1.29805 5.2674H2.76645V4.4674H1.29805V5.2674ZM2.47773 5.14425L2.47926 5.14583L3.05363 4.58897L3.0521 4.58739L2.47773 5.14425ZM9.43739 4.46582L2.76491 4.46582L2.76491 5.26582H9.43739V4.46582ZM9.57462 4.42085C9.54717 4.44443 9.49854 4.46582 9.43739 4.46582V5.26582C9.67467 5.26582 9.91224 5.18542 10.0958 5.02778L9.57462 4.42085ZM9.6 4.3827C9.6 4.38443 9.59971 4.38796 9.59689 4.3938C9.59398 4.39985 9.58762 4.40969 9.57462 4.42085L10.0958 5.02778C10.2813 4.86853 10.4 4.63829 10.4 4.3827H9.6ZM9.57462 4.34455C9.58762 4.35571 9.59398 4.36555 9.59689 4.3716C9.59971 4.37744 9.6 4.38097 9.6 4.3827H10.4C10.4 4.12712 10.2813 3.89687 10.0958 3.73762L9.57462 4.34455ZM9.43739 4.29958C9.49854 4.29958 9.54717 4.32098 9.57462 4.34455L10.0958 3.73762C9.91224 3.57998 9.67467 3.49958 9.43739 3.49958V4.29958ZM2.76491 4.29958L9.43739 4.29958V3.49958L2.76491 3.49958L2.76491 4.29958ZM4.51998 1.51473L2.47773 3.62114L3.0521 4.17801L5.09435 2.07161L4.51998 1.51473ZM4.53608 1.49115C4.53442 1.49574 4.53022 1.50418 4.5201 1.51461L5.09423 2.07173C5.17885 1.98452 5.24604 1.88023 5.28831 1.76346L4.53608 1.49115ZM4.53746 1.48224C4.53767 1.48416 4.53764 1.48684 4.53608 1.49115L5.28831 1.76346C5.33068 1.64641 5.34627 1.52147 5.33289 1.39684L4.53746 1.48224ZM4.53174 1.46786C4.53633 1.47534 4.53725 1.48021 4.53746 1.48224L5.33289 1.39684C5.31952 1.27231 5.27791 1.15417 5.21347 1.04923L4.53174 1.46786Z" fill="#76767A" mask="url(#path-1-outside-1)"/>
<mask id="path-3-outside-2" maskUnits="userSpaceOnUse" x="0" y="6.35999" width="11" height="6" fill="black">
<rect fill="white" y="6.35999" width="11" height="6"/>
<path fill-rule="evenodd" clip-rule="evenodd" d="M6.1274 11.1014C6.16191 11.1576 6.209 11.2075 6.26597 11.248C6.32282 11.2887 6.38846 11.3193 6.45913 11.3382C6.52979 11.3571 6.60409 11.3638 6.67778 11.3579C6.75147 11.3521 6.82309 11.3339 6.88855 11.3042C6.95401 11.2746 7.01201 11.2341 7.05924 11.1852L9.87226 8.28648L9.9229 8.21401L9.96228 8.15121C10.0126 8.03928 10.0126 7.91529 9.96228 7.80336L9.9229 7.74056L9.87226 7.66809L9.70195 7.49258H8.23355L8.23509 7.49416L1.56261 7.49416C1.41339 7.49416 1.27029 7.54506 1.16479 7.63567C1.05928 7.72627 1 7.84915 1 7.97728C1 8.10542 1.05928 8.2283 1.16479 8.3189C1.27029 8.40951 1.41339 8.46041 1.56261 8.46041L8.23509 8.46041L6.19283 10.5668C6.14546 10.6156 6.10977 10.672 6.0878 10.7327C6.06584 10.7934 6.05803 10.8572 6.06482 10.9204C6.07162 10.9837 6.09288 11.0452 6.1274 11.1014Z"/>
</mask>
<path fill-rule="evenodd" clip-rule="evenodd" d="M6.1274 11.1014C6.16191 11.1576 6.209 11.2075 6.26597 11.248C6.32282 11.2887 6.38846 11.3193 6.45913 11.3382C6.52979 11.3571 6.60409 11.3638 6.67778 11.3579C6.75147 11.3521 6.82309 11.3339 6.88855 11.3042C6.95401 11.2746 7.01201 11.2341 7.05924 11.1852L9.87226 8.28648L9.9229 8.21401L9.96228 8.15121C10.0126 8.03928 10.0126 7.91529 9.96228 7.80336L9.9229 7.74056L9.87226 7.66809L9.70195 7.49258H8.23355L8.23509 7.49416L1.56261 7.49416C1.41339 7.49416 1.27029 7.54506 1.16479 7.63567C1.05928 7.72627 1 7.84915 1 7.97728C1 8.10542 1.05928 8.2283 1.16479 8.3189C1.27029 8.40951 1.41339 8.46041 1.56261 8.46041L8.23509 8.46041L6.19283 10.5668C6.14546 10.6156 6.10977 10.672 6.0878 10.7327C6.06584 10.7934 6.05803 10.8572 6.06482 10.9204C6.07162 10.9837 6.09288 11.0452 6.1274 11.1014Z" fill="#76767A"/>
<path d="M6.26597 11.248L6.49874 10.9227L6.49796 10.9222L6.26597 11.248ZM6.45913 11.3382L6.56229 10.9517L6.56229 10.9517L6.45913 11.3382ZM6.67778 11.3579L6.70935 11.7567H6.70935L6.67778 11.3579ZM6.88855 11.3042L6.72355 10.9398V10.9398L6.88855 11.3042ZM7.05924 11.1852L6.77219 10.9066L6.77147 10.9074L7.05924 11.1852ZM9.87226 8.28648L10.1593 8.56505L10.1817 8.54196L10.2002 8.51558L9.87226 8.28648ZM9.9229 8.21401L10.2508 8.44311L10.2565 8.43495L10.2618 8.42651L9.9229 8.21401ZM9.96228 8.15121L10.3012 8.36371L10.3158 8.34033L10.3271 8.31516L9.96228 8.15121ZM9.96228 7.80336L10.3271 7.63941L10.3158 7.61424L10.3012 7.59086L9.96228 7.80336ZM9.9229 7.74056L10.2618 7.52806L10.2565 7.51962L10.2508 7.51145L9.9229 7.74056ZM9.87226 7.66809L10.2002 7.43899L10.1817 7.41261L10.1593 7.38952L9.87226 7.66809ZM9.70195 7.49258L9.989 7.21402L9.87116 7.09258H9.70195V7.49258ZM8.23355 7.49258V7.09258H7.28863L7.94637 7.77101L8.23355 7.49258ZM8.23509 7.49416L8.23509 7.89416H9.18001L8.52227 7.21573L8.23509 7.49416ZM1.56261 7.49416V7.09416V7.49416ZM1.16479 7.63567L1.42538 7.93913L1.42538 7.93913L1.16479 7.63567ZM1.16479 8.3189L1.42538 8.01544L1.42538 8.01544L1.16479 8.3189ZM1.56261 8.46041V8.06041V8.46041ZM8.23509 8.46041L8.52227 8.73884L9.18004 8.06041H8.23509V8.46041ZM6.19283 10.5668L6.4799 10.8454L6.48002 10.8453L6.19283 10.5668ZM6.0878 10.7327L6.46392 10.8688L6.46392 10.8688L6.0878 10.7327ZM6.06482 10.9204L6.46254 10.8777V10.8777L6.06482 10.9204ZM6.49796 10.9222C6.48207 10.9108 6.47301 10.8999 6.46826 10.8921L5.78653 11.3108C5.85082 11.4154 5.93594 11.5041 6.03398 11.5739L6.49796 10.9222ZM6.56229 10.9517C6.53598 10.9447 6.51463 10.9341 6.49874 10.9227L6.0332 11.5733C6.13101 11.6433 6.24094 11.694 6.35596 11.7247L6.56229 10.9517ZM6.64621 10.9592C6.61732 10.9615 6.58859 10.9588 6.56229 10.9517L6.35596 11.7247C6.47099 11.7554 6.59087 11.7661 6.70935 11.7567L6.64621 10.9592ZM6.72355 10.9398C6.70146 10.9498 6.67512 10.9569 6.64621 10.9592L6.70935 11.7567C6.82783 11.7473 6.94473 11.7179 7.05355 11.6686L6.72355 10.9398ZM6.77147 10.9074C6.76129 10.9179 6.74563 10.9298 6.72355 10.9398L7.05355 11.6686C7.16239 11.6193 7.26273 11.5503 7.34701 11.463L6.77147 10.9074ZM9.58521 8.00792L6.77219 10.9066L7.3463 11.4638L10.1593 8.56505L9.58521 8.00792ZM9.59501 7.98491L9.54437 8.05738L10.2002 8.51558L10.2508 8.44311L9.59501 7.98491ZM9.62339 7.93871L9.58401 8.00152L10.2618 8.42651L10.3012 8.36371L9.62339 7.93871ZM9.59742 7.96731C9.59975 7.97248 9.6 7.97565 9.6 7.97728C9.6 7.97892 9.59975 7.98209 9.59742 7.98726L10.3271 8.31516C10.4243 8.09895 10.4243 7.85562 10.3271 7.63941L9.59742 7.96731ZM9.58401 7.95305L9.62339 8.01586L10.3012 7.59086L10.2618 7.52806L9.58401 7.95305ZM9.54437 7.89719L9.59501 7.96966L10.2508 7.51145L10.2002 7.43899L9.54437 7.89719ZM9.41489 7.77115L9.58521 7.94665L10.1593 7.38952L9.989 7.21402L9.41489 7.77115ZM9.70195 7.09258H8.23355V7.89258H9.70195V7.09258ZM8.52227 7.21573L8.52074 7.21415L7.94637 7.77101L7.9479 7.77259L8.52227 7.21573ZM1.56261 7.89416L8.23509 7.89416L8.23509 7.09416H1.56261V7.89416ZM1.42538 7.93913C1.45283 7.91556 1.50146 7.89416 1.56261 7.89416V7.09416C1.32533 7.09416 1.08776 7.17457 0.904191 7.3322L1.42538 7.93913ZM1.4 7.97728C1.4 7.97556 1.40029 7.97203 1.40311 7.96618C1.40602 7.96014 1.41238 7.9503 1.42538 7.93913L0.904193 7.3322C0.718736 7.49146 0.600003 7.7217 0.600003 7.97728H1.4ZM1.42538 8.01544C1.41238 8.00427 1.40602 7.99443 1.40311 7.98838C1.40029 7.98254 1.4 7.97901 1.4 7.97728H0.600003C0.600003 8.23287 0.718735 8.46311 0.904193 8.62237L1.42538 8.01544ZM1.56261 8.06041C1.50146 8.06041 1.45283 8.03901 1.42538 8.01544L0.904191 8.62237C1.08776 8.78 1.32533 8.86041 1.56261 8.86041V8.06041ZM8.23509 8.06041L1.56261 8.06041V8.86041L8.23509 8.86041L8.23509 8.06041ZM6.48002 10.8453L8.52227 8.73884L7.9479 8.18197L5.90565 10.2884L6.48002 10.8453ZM6.46392 10.8688C6.46558 10.8642 6.46978 10.8558 6.4799 10.8454L5.90577 10.2883C5.82115 10.3755 5.75396 10.4798 5.71169 10.5965L6.46392 10.8688ZM6.46254 10.8777C6.46233 10.8758 6.46236 10.8731 6.46392 10.8688L5.71169 10.5965C5.66932 10.7136 5.65373 10.8385 5.66711 10.9631L6.46254 10.8777ZM6.46826 10.8921C6.46367 10.8846 6.46275 10.8798 6.46254 10.8777L5.66711 10.9631C5.68048 11.0877 5.72209 11.2058 5.78653 11.3108L6.46826 10.8921Z" fill="#76767A" mask="url(#path-3-outside-2)"/>
</g>
</svg>
