<svg width="14" height="22" viewBox="0 0 14 22" fill="none" xmlns="http://www.w3.org/2000/svg">
<path d="M10.6663 0.916656H3.33301C1.81134 0.916656 0.583008 2.14499 0.583008 3.66666V18.3333C0.583008 19.855 1.81134 21.0833 3.33301 21.0833H10.6663C12.188 21.0833 13.4163 19.855 13.4163 18.3333V3.66666C13.4163 2.14499 12.188 0.916656 10.6663 0.916656ZM8.83301 19.25H5.16634V18.3333H8.83301V19.25ZM11.8122 16.5H2.18717V3.66666H11.8122V16.5Z" fill="#C5C5C8"/>
</svg>
