<svg width="13" height="12" viewBox="0 0 13 12" fill="none" xmlns="http://www.w3.org/2000/svg">
<path fill-rule="evenodd" clip-rule="evenodd" d="M6.78064 0.968997C6.71097 0.899153 6.6282 0.843738 6.53709 0.805928C6.44597 0.768119 6.34829 0.748657 6.24964 0.748657C6.15099 0.748657 6.0533 0.768119 5.96219 0.805928C5.87107 0.843738 5.7883 0.899153 5.71864 0.968997L1.21864 5.469C1.14879 5.53867 1.09338 5.62143 1.05557 5.71255C1.01776 5.80366 0.998295 5.90135 0.998295 6C0.998295 6.09865 1.01776 6.19633 1.05557 6.28745C1.09338 6.37856 1.14879 6.46133 1.21864 6.531L5.71864 11.031C5.85947 11.1718 6.05047 11.2509 6.24964 11.2509C6.4488 11.2509 6.63981 11.1718 6.78064 11.031C6.92147 10.8902 7.00058 10.6992 7.00058 10.5C7.00058 10.3008 6.92147 10.1098 6.78064 9.969L2.81014 6L6.78064 2.031C6.85048 1.96133 6.90589 1.87857 6.9437 1.78745C6.98151 1.69633 7.00098 1.59865 7.00098 1.5C7.00098 1.40135 6.98151 1.30366 6.9437 1.21255C6.90589 1.12143 6.85048 1.03867 6.78064 0.968997Z" fill="#1875F0"/>
<path fill-rule="evenodd" clip-rule="evenodd" d="M13 6C13 5.80109 12.921 5.61032 12.7803 5.46967C12.6397 5.32902 12.4489 5.25 12.25 5.25H2.5C2.30109 5.25 2.11032 5.32902 1.96967 5.46967C1.82902 5.61032 1.75 5.80109 1.75 6C1.75 6.19891 1.82902 6.38968 1.96967 6.53033C2.11032 6.67098 2.30109 6.75 2.5 6.75H12.25C12.4489 6.75 12.6397 6.67098 12.7803 6.53033C12.921 6.38968 13 6.19891 13 6Z" fill="#1875F0"/>
</svg>
