<svg width="21" height="21" viewBox="0 0 21 21" fill="none" xmlns="http://www.w3.org/2000/svg">
<path fill-rule="evenodd" clip-rule="evenodd" d="M7.80418 13.2064C4.81477 13.2064 2.40143 10.7936 2.40143 7.80367C2.40143 4.81417 4.81477 2.4011 7.80418 2.4011C10.7946 2.4011 13.2079 4.81417 13.2079 7.80367C13.2079 10.7936 10.7946 13.2064 7.80418 13.2064ZM15.0082 13.2064H14.0596L13.7241 12.8824C14.9004 11.5137 15.6093 9.7368 15.6093 7.80367C15.6093 3.49347 12.1146 -0.00012207 7.80418 -0.00012207C3.49368 -0.00012207 0 3.49347 0 7.80367C0 12.1139 3.49368 15.6079 7.80418 15.6079C9.73718 15.6079 11.5145 14.8993 12.8835 13.7229L13.2079 14.0589V15.0073L19.2108 20.9983L21 19.2095L15.0082 13.2064Z" fill="#1875F0"/>
</svg>
